[
    {
        "ParameterKey": "AnalyticsBucket",
        "ParameterValue": "PROD_ANALYTICS_BUCKET"
    },
    {
        "ParameterKey": "AnalyticsBucketRegion",
        "ParameterValue": "us-east-1"
    },
    {
        "ParameterKey": "DeployPricingDataStack",
        "ParameterValue": "true"
    },
    {
        "ParameterKey": "DeployCURDataStack",
        "ParameterValue": "true"
    },
    {
        "ParameterKey": "CURBucket",
        "ParameterValue": "PROD_CUR_BUCKET"
    },
    {
        "ParameterKey": "CURBucketRegion",
        "ParameterValue": "us-east-1"
    },
    {
        "ParameterKey": "CURDataKeyPrefix",
        "ParameterValue": "cost_usage_report"
    },
    {
        "ParameterKey": "CURDropColumns",
        "ParameterValue": "resourceTags/user:Business_Unit,resourceTags/user:Business_unit,resourceTags/user:Department,resourceTags/user:Environment,resourceTags/user:Owner,resourceTags/user:Service,resourceTags/user:name,resourceTags/user:owner"
    },
    {
        "ParameterKey": "GlueDataCatalogName",
        "ParameterValue": "PROD_GLUE_CATALOG_NAME"
    },
    {
        "ParameterKey": "GlueManagementRoleARN",
        "ParameterValue": "PROD_GLUE_MANAGEMENT_ROLE_ARN"
    },
    {
        "ParameterKey": "GlueCrawlerRoleARN",
        "ParameterValue": "PROD_GLUE_CRAWLER_ROLE_ARN"
    },
    {
        "ParameterKey": "GlueRegion",
        "ParameterValue": "us-east-1"
    },
    {
        "ParameterKey": "GlueCrawlerNamePrefix",
        "ParameterValue": "CENG-"
    },
    {
        "ParameterKey": "MutexTableName",
        "ParameterValue": "SqueegeeMutexTable"
    },
    {
        "ParameterKey": "VPCId",
        "ParameterValue": "create"
    },
    {
        "ParameterKey": "Subnets",
        "ParameterValue": ""
    },
    {
        "ParameterKey": "DockerImageName",
        "ParameterValue": "atlassiancloudteam/squeegee"
    },
    {
        "ParameterKey": "SqueegeeS3BucketName",
        "ParameterValue": "PROD_ANALYTICS_BUCKET"
    },
    {
        "ParameterKey": "SqueegeeS3Region",
        "ParameterValue": "us-east-1"
    },
    {
        "ParameterKey": "SqueegeeS3KeyPrefix",
        "ParameterValue": "aws_billing_analytics_deployment/"
    },
    {
        "ParameterKey": "CreateBatchLogGroup",
        "ParameterValue": "false"
    },
    {
        "ParameterKey": "BatchJSONLogging",
        "ParameterValue": "true"
    },
    {
        "ParameterKey": "PricingDataKeyPrefix",
        "ParameterValue": "aws_pricing"
    },
    {
        "ParameterKey": "BatchMinCPU",
        "ParameterValue": "0"
    },
    {
        "ParameterKey": "BatchMaxCPU",
        "ParameterValue": "512"
    },
    {
        "ParameterKey": "BatchBidPercentage",
        "ParameterValue": "60"
    },
    {
        "ParameterKey": "BatchJobvCPU",
        "ParameterValue": "1"
    },
    {
        "ParameterKey": "BatchJobMemory",
        "ParameterValue": "512"
    }
]